main.c:163:5:main	8	static
main.c:188:6:EXTI0_IRQHandler	8	static
main.c:196:6:EXTI15_10_IRQHandler	8	static
main.c:204:6:EXTI3_IRQHandler	8	static
main.c:212:6:TIM3_IRQHandler	8	static
main.c:220:6:PRINT_LCD	8	static
main.c:228:6:PRINT_WAVEFORM	8	static
main.c:237:6:PRINT_FREQ	24	static
main.c:260:6:CHANGE_WAVEFORM	8	static
main.c:290:6:CHANGE_FREQ	16	static
main.c:304:6:CHANGE_ATT	8	static
main.c:365:6:VOLT_TO_FREQ	16	static
main.c:385:6:CHANGE_BAND	4	static
main.c:392:6:CALC_MITAD_SENO	16	static
main.c:398:6:CALC_MITAD_TRIANG	16	static
main.c:404:6:CALC_MITAD_CUAD	16	static
main.c:410:6:CALC_CUARTO_SENO	16	static
main.c:416:6:CALC_CUARTO_TRIANG	16	static
main.c:422:6:CALC_CUARTO_CUAD	16	static
main.c:428:13:TIM6_Config	8	static
main.c:472:13:DAC_Ch2_SineWaveConfig	72	static
main.c:510:6:DAC_SINE_MITAD	72	static
main.c:548:6:DAC_SINE_CUARTO	72	static
main.c:586:6:Delay	16	static
main.c:591:6:DAC_TRIANG	72	static
main.c:629:6:DAC_TRIANG_MITAD	72	static
main.c:667:6:DAC_TRIANG_CUARTO	72	static
main.c:705:6:DAC_CUAD	72	static
main.c:743:6:DAC_CUAD_MITAD	72	static
main.c:781:6:DAC_CUAD_CUARTO	72	static
main.c:819:6:EXTI_LINE13_INIT	32	static
main.c:854:6:EXTI_LINE3_INIT	32	static
main.c:889:6:EXTI_LINE0_INIT	32	static
main.c:924:6:ADC_INIT	56	static
main.c:970:9:ADC_READ	16	static
main.c:986:7:ADC_VOLT	8	static
main.c:990:6:TIM3_CONFIG	24	static
main.c:1038:6:TIM2_CONFIG	24	static
main.c:1086:6:INIT_LEDS	16	static
main.c:1101:6:INIT_ALL	16	static
